%YAML 1.1
%TAG !u! tag:unity3d.com,2011:
--- !u!319 &31900000
AvatarMask:
  m_ObjectHideFlags: 0
  m_CorrespondingSourceObject: {fileID: 0}
  m_PrefabInstance: {fileID: 0}
  m_PrefabAsset: {fileID: 0}
  m_Name: TypingMaskLower
  m_Mask: 01000000000000000000000001000000010000000000000000000000000000000000000001000000010000000000000000000000
  m_Elements:
  - m_Path: 
    m_Weight: 1
  - m_Path: Humanbot_A_Geom
    m_Weight: 1
  - m_Path: ROOT
    m_Weight: 0
  - m_Path: ROOT/Hips
    m_Weight: 0
  - m_Path: ROOT/Hips/B_Hips_Geom
    m_Weight: 0
  - m_Path: ROOT/Hips/LeftUpLeg
    m_Weight: 0
  - m_Path: ROOT/Hips/LeftUpLeg/B_LeftUpLeg_Geom
    m_Weight: 1
  - m_Path: ROOT/Hips/LeftUpLeg/LeftLeg
    m_Weight: 1
  - m_Path: ROOT/Hips/LeftUpLeg/LeftLeg/B_LeftLeg_Geom
    m_Weight: 1
  - m_Path: ROOT/Hips/LeftUpLeg/LeftLeg/LeftFoot
    m_Weight: 1
  - m_Path: ROOT/Hips/LeftUpLeg/LeftLeg/LeftFoot/LeftToeBase
    m_Weight: 1
  - m_Path: ROOT/Hips/RightUpLeg
    m_Weight: 0
  - m_Path: ROOT/Hips/RightUpLeg/B_RightUpLeg_Geom
    m_Weight: 1
  - m_Path: ROOT/Hips/RightUpLeg/RightLeg
    m_Weight: 1
  - m_Path: ROOT/Hips/RightUpLeg/RightLeg/B_RightLeg_Geom
    m_Weight: 1
  - m_Path: ROOT/Hips/RightUpLeg/RightLeg/RightFoot
    m_Weight: 1
  - m_Path: ROOT/Hips/RightUpLeg/RightLeg/RightFoot/RightToeBase
    m_Weight: 1
  - m_Path: ROOT/Hips/Spine
    m_Weight: 0
  - m_Path: ROOT/Hips/Spine/B_Torso_Geom
    m_Weight: 1
  - m_Path: ROOT/Hips/Spine/Spine1
    m_Weight: 1
  - m_Path: ROOT/Hips/Spine/Spine1/B_Chest_Geom
    m_Weight: 1
  - m_Path: ROOT/Hips/Spine/Spine1/LeftShoulder
    m_Weight: 1
  - m_Path: ROOT/Hips/Spine/Spine1/LeftShoulder/LeftArm
    m_Weight: 1
  - m_Path: ROOT/Hips/Spine/Spine1/LeftShoulder/LeftArm/B_LeftArm_Geom
    m_Weight: 1
  - m_Path: ROOT/Hips/Spine/Spine1/LeftShoulder/LeftArm/LeftForeArm
    m_Weight: 1
  - m_Path: ROOT/Hips/Spine/Spine1/LeftShoulder/LeftArm/LeftForeArm/B_LeftForeArm_Geom
    m_Weight: 1
  - m_Path: ROOT/Hips/Spine/Spine1/LeftShoulder/LeftArm/LeftForeArm/LeftHand
    m_Weight: 1
  - m_Path: ROOT/Hips/Spine/Spine1/LeftShoulder/LeftArm/LeftForeArm/LeftHand/B_LeftHand_Geom
    m_Weight: 1
  - m_Path: ROOT/Hips/Spine/Spine1/LeftShoulder/LeftArm/LeftForeArm/LeftHand/LeftHandIndex1
    m_Weight: 1
  - m_Path: ROOT/Hips/Spine/Spine1/LeftShoulder/LeftArm/LeftForeArm/LeftHand/LeftHandIndex1/LeftHandIndex2
    m_Weight: 1
  - m_Path: ROOT/Hips/Spine/Spine1/LeftShoulder/LeftArm/LeftForeArm/LeftHand/LeftHandIndex1/LeftHandIndex2/LeftHandIndex3
    m_Weight: 1
  - m_Path: ROOT/Hips/Spine/Spine1/LeftShoulder/LeftArm/LeftForeArm/LeftHand/LeftHandIndex1/LeftHandIndex2/LeftHandIndex3/LeftHandIndex4
    m_Weight: 1
  - m_Path: ROOT/Hips/Spine/Spine1/LeftShoulder/LeftArm/LeftForeArm/LeftHand/LeftHandMiddle1
    m_Weight: 1
  - m_Path: ROOT/Hips/Spine/Spine1/LeftShoulder/LeftArm/LeftForeArm/LeftHand/LeftHandMiddle1/LeftHandMiddle2
    m_Weight: 1
  - m_Path: ROOT/Hips/Spine/Spine1/LeftShoulder/LeftArm/LeftForeArm/LeftHand/LeftHandMiddle1/LeftHandMiddle2/LeftHandMiddle3
    m_Weight: 1
  - m_Path: ROOT/Hips/Spine/Spine1/LeftShoulder/LeftArm/LeftForeArm/LeftHand/LeftHandMiddle1/LeftHandMiddle2/LeftHandMiddle3/LeftHandMiddle4
    m_Weight: 1
  - m_Path: ROOT/Hips/Spine/Spine1/LeftShoulder/LeftArm/LeftForeArm/LeftHand/LeftHandPinky1
    m_Weight: 1
  - m_Path: ROOT/Hips/Spine/Spine1/LeftShoulder/LeftArm/LeftForeArm/LeftHand/LeftHandPinky1/LeftHandPinky2
    m_Weight: 1
  - m_Path: ROOT/Hips/Spine/Spine1/LeftShoulder/LeftArm/LeftForeArm/LeftHand/LeftHandPinky1/LeftHandPinky2/LeftHandPinky3
    m_Weight: 1
  - m_Path: ROOT/Hips/Spine/Spine1/LeftShoulder/LeftArm/LeftForeArm/LeftHand/LeftHandPinky1/LeftHandPinky2/LeftHandPinky3/LeftHandPinky4
    m_Weight: 1
  - m_Path: ROOT/Hips/Spine/Spine1/LeftShoulder/LeftArm/LeftForeArm/LeftHand/LeftHandRing1
    m_Weight: 1
  - m_Path: ROOT/Hips/Spine/Spine1/LeftShoulder/LeftArm/LeftForeArm/LeftHand/LeftHandRing1/LeftHandRing2
    m_Weight: 1
  - m_Path: ROOT/Hips/Spine/Spine1/LeftShoulder/LeftArm/LeftForeArm/LeftHand/LeftHandRing1/LeftHandRing2/LeftHandRing3
    m_Weight: 1
  - m_Path: ROOT/Hips/Spine/Spine1/LeftShoulder/LeftArm/LeftForeArm/LeftHand/LeftHandRing1/LeftHandRing2/LeftHandRing3/LeftHandRing4
    m_Weight: 1
  - m_Path: ROOT/Hips/Spine/Spine1/LeftShoulder/LeftArm/LeftForeArm/LeftHand/LeftHandThumb1
    m_Weight: 1
  - m_Path: ROOT/Hips/Spine/Spine1/LeftShoulder/LeftArm/LeftForeArm/LeftHand/LeftHandThumb1/B_LeftHandThumb1_Geom
    m_Weight: 1
  - m_Path: ROOT/Hips/Spine/Spine1/LeftShoulder/LeftArm/LeftForeArm/LeftHand/LeftHandThumb1/LeftHandThumb2
    m_Weight: 1
  - m_Path: ROOT/Hips/Spine/Spine1/LeftShoulder/LeftArm/LeftForeArm/LeftHand/LeftHandThumb1/LeftHandThumb2/LeftHandThumb3
    m_Weight: 1
  - m_Path: ROOT/Hips/Spine/Spine1/LeftShoulder/LeftArm/LeftForeArm/LeftHand/LeftHandThumb1/LeftHandThumb2/LeftHandThumb3/LeftHandThumb4
    m_Weight: 1
  - m_Path: ROOT/Hips/Spine/Spine1/Neck
    m_Weight: 1
  - m_Path: ROOT/Hips/Spine/Spine1/Neck/Head
    m_Weight: 1
  - m_Path: ROOT/Hips/Spine/Spine1/Neck/Head/B_Head_Geom
    m_Weight: 1
  - m_Path: ROOT/Hips/Spine/Spine1/RightShoulder
    m_Weight: 1
  - m_Path: ROOT/Hips/Spine/Spine1/RightShoulder/RightArm
    m_Weight: 1
  - m_Path: ROOT/Hips/Spine/Spine1/RightShoulder/RightArm/B_RightArm_Geom
    m_Weight: 1
  - m_Path: ROOT/Hips/Spine/Spine1/RightShoulder/RightArm/RightForeArm
    m_Weight: 1
  - m_Path: ROOT/Hips/Spine/Spine1/RightShoulder/RightArm/RightForeArm/B_RightForeArm_Geom
    m_Weight: 1
  - m_Path: ROOT/Hips/Spine/Spine1/RightShoulder/RightArm/RightForeArm/RightHand
    m_Weight: 1
  - m_Path: ROOT/Hips/Spine/Spine1/RightShoulder/RightArm/RightForeArm/RightHand/B_RightHand_Geom
    m_Weight: 1
  - m_Path: ROOT/Hips/Spine/Spine1/RightShoulder/RightArm/RightForeArm/RightHand/RightHandIndex1
    m_Weight: 1
  - m_Path: ROOT/Hips/Spine/Spine1/RightShoulder/RightArm/RightForeArm/RightHand/RightHandIndex1/RightHandIndex2
    m_Weight: 1
  - m_Path: ROOT/Hips/Spine/Spine1/RightShoulder/RightArm/RightForeArm/RightHand/RightHandIndex1/RightHandIndex2/RightHandIndex3
    m_Weight: 1
  - m_Path: ROOT/Hips/Spine/Spine1/RightShoulder/RightArm/RightForeArm/RightHand/RightHandIndex1/RightHandIndex2/RightHandIndex3/RightHandIndex4
    m_Weight: 1
  - m_Path: ROOT/Hips/Spine/Spine1/RightShoulder/RightArm/RightForeArm/RightHand/RightHandMiddle1
    m_Weight: 1
  - m_Path: ROOT/Hips/Spine/Spine1/RightShoulder/RightArm/RightForeArm/RightHand/RightHandMiddle1/RightHandMiddle2
    m_Weight: 1
  - m_Path: ROOT/Hips/Spine/Spine1/RightShoulder/RightArm/RightForeArm/RightHand/RightHandMiddle1/RightHandMiddle2/RightHandMiddle3
    m_Weight: 1
  - m_Path: ROOT/Hips/Spine/Spine1/RightShoulder/RightArm/RightForeArm/RightHand/RightHandMiddle1/RightHandMiddle2/RightHandMiddle3/RightHandMiddle4
    m_Weight: 1
  - m_Path: ROOT/Hips/Spine/Spine1/RightShoulder/RightArm/RightForeArm/RightHand/RightHandPinky1
    m_Weight: 1
  - m_Path: ROOT/Hips/Spine/Spine1/RightShoulder/RightArm/RightForeArm/RightHand/RightHandPinky1/RightHandPinky2
    m_Weight: 1
  - m_Path: ROOT/Hips/Spine/Spine1/RightShoulder/RightArm/RightForeArm/RightHand/RightHandPinky1/RightHandPinky2/RightHandPinky3
    m_Weight: 1
  - m_Path: ROOT/Hips/Spine/Spine1/RightShoulder/RightArm/RightForeArm/RightHand/RightHandPinky1/RightHandPinky2/RightHandPinky3/RightHandPinky4
    m_Weight: 1
  - m_Path: ROOT/Hips/Spine/Spine1/RightShoulder/RightArm/RightForeArm/RightHand/RightHandRing1
    m_Weight: 1
  - m_Path: ROOT/Hips/Spine/Spine1/RightShoulder/RightArm/RightForeArm/RightHand/RightHandRing1/RightHandRing2
    m_Weight: 1
  - m_Path: ROOT/Hips/Spine/Spine1/RightShoulder/RightArm/RightForeArm/RightHand/RightHandRing1/RightHandRing2/RightHandRing3
    m_Weight: 1
  - m_Path: ROOT/Hips/Spine/Spine1/RightShoulder/RightArm/RightForeArm/RightHand/RightHandRing1/RightHandRing2/RightHandRing3/RightHandRing4
    m_Weight: 1
  - m_Path: ROOT/Hips/Spine/Spine1/RightShoulder/RightArm/RightForeArm/RightHand/RightHandThumb1
    m_Weight: 1
  - m_Path: ROOT/Hips/Spine/Spine1/RightShoulder/RightArm/RightForeArm/RightHand/RightHandThumb1/B_RightHandThumb1_Geom
    m_Weight: 1
  - m_Path: ROOT/Hips/Spine/Spine1/RightShoulder/RightArm/RightForeArm/RightHand/RightHandThumb1/RightHandThumb2
    m_Weight: 1
  - m_Path: ROOT/Hips/Spine/Spine1/RightShoulder/RightArm/RightForeArm/RightHand/RightHandThumb1/RightHandThumb2/RightHandThumb3
    m_Weight: 1
  - m_Path: ROOT/Hips/Spine/Spine1/RightShoulder/RightArm/RightForeArm/RightHand/RightHandThumb1/RightHandThumb2/RightHandThumb3/RightHandThumb4
    m_Weight: 1
